Propensity Score Analysis with Multiply Imputed Data | Megha
…
Below I estimate ATT weights using the across and within methods. For the Across method, I use the average of the propensity scores across the imputed datasets to calculate weights. For the within method, I use the the propensity scores estimated within each imputed dataset to calculate weights.

The code below groups the imputed data by .id which is an identifier denoting each case. For each case, I summarize the mean of the propensity scores across the 10 imputed dataset and add that mean propensity score as a variable ps_across in the data. Then, I estimate the ATT weights using the averaged propensity scores for the Across method and the original propensity scores for the Within method.

imp_dat_ps <- imp_dat_ps %>%
  group_by(.id) %>%
  mutate(ps_across = mean(ps)) %>%
  ungroup() %>%
  mutate(att_wt_across = drop_status + (1 - drop_status) * ps_across/(1 - ps_across),
         att_wt_within = drop_status + (1 - drop_status) * ps/(1 - ps))

imp_dat_ps %>%
  select(.imp, ps, ps_across, att_wt_across, att_wt_within)

## # A tibble: 214,020 x 5
##     .imp       ps ps_across att_wt_across att_wt_within
##    <int>    <dbl>     <dbl>         <dbl>         <dbl>
##  1     1 0.00339   0.00330       0.00331       0.00340 
##  2     1 0.00989   0.0102        0.0103        0.00999 
##  3     1 0.00135   0.00131       0.00132       0.00135 
##  4     1 0.0119    0.0114        0.0115        0.0120  
##  5     1 0.00222   0.00246       0.00246       0.00222 
##  6     1 0.00289   0.00294       0.00295       0.00290 
##  7     1 0.0113    0.0101        0.0102        0.0114  
##  8     1 0.00347   0.00375       0.00377       0.00348 
##  9     1 0.00327   0.00276       0.00276       0.00328 
## 10     1 0.000667  0.000633      0.000633      0.000667
## # … with 214,010 more rows
…
